<?xml version="1.0" encoding="utf-8"?>
<!-- Generator: Adobe Illustrator 21.0.0, SVG Export Plug-In . SVG Version: 6.00 Build 0)  -->
<svg version="1.1" id="Layer_1" xmlns="http://www.w3.org/2000/svg" xmlns:xlink="http://www.w3.org/1999/xlink" x="0px" y="0px"
	 viewBox="0 0 30 30" style="enable-background:new 0 0 30 30;" xml:space="preserve">
<style type="text/css">
	.st0{fill-rule:evenodd;clip-rule:evenodd;fill:#FF8F00;}
	.st1{fill-rule:evenodd;clip-rule:evenodd;fill:#FFFFFF;}
</style>
<rect class="st0" width="30" height="30"/>
<g>
	<path class="st1" d="M24.9,6c-3.3,2.8-5.5,5.2-5.4,6.8c-0.5,4.4,3.8,3.7-0.4,11.1c2.6-2.2,4.5-4,5.1-6.4
		C24.5,13.7,20.1,13.4,24.9,6L24.9,6z"/>
	<path class="st1" d="M10.9,6.1c-3.3,2.8-5.5,5.2-5.4,6.8C4.9,17.2,9.3,16.6,5.1,24c2.6-2.2,4.5-4,5.1-6.4
		C10.4,13.7,6,13.5,10.9,6.1L10.9,6.1z"/>
	<path class="st1" d="M17.9,6c-3.3,2.8-5.5,5.2-5.4,6.8c-0.5,4.4,3.9,3.7-0.3,11.1c2.6-2.2,4.5-4,5.1-6.4C17.4,13.7,13,13.4,17.9,6
		L17.9,6z"/>
</g>
</svg>
